{
  "project_info": {
    "project_number": "801812567644",
    "project_id": "bird-17871",
    "storage_bucket": "bird-17871.appspot.com"
  },
  "client": [
    {
      "client_info": {
        "mobilesdk_app_id": "1:801812567644:android:ba5d729892e8464f5ff899",
        "android_client_info": {
          "package_name": "com.hasimgorucu.bird"
        }
      },
      "oauth_client": [
        {
          "client_id": "801812567644-tupvgvrdiiq32br676afhgr2ipoe7r69.apps.googleusercontent.com",
          "client_type": 3
        }
      ],
      "api_key": [
        {
          "current_key": "AIzaSyBLsTom7ZTWmM2tlVcPUUv16EdbyiBlnJ8"
        }
      ],
      "services": {
        "appinvite_service": {
          "other_platform_oauth_client": [
            {
              "client_id": "801812567644-tupvgvrdiiq32br676afhgr2ipoe7r69.apps.googleusercontent.com",
              "client_type": 3
            }
          ]
        }
      }
    }
  ],
  "configuration_version": "1"
}